dump.vcd
$date
	Mon May  4 13:39:16 2026
$end
$version
	Icarus Verilog
$end
$timescale
	1ps
$end
$scope module CPUtop_tb $end
$var reg 1 ! CLK $end
$var reg 1 " RST $end
$var integer 32 # simulation_mode [31:0] $end
$scope module dut $end
$var wire 1 ! CLK $end
$var wire 8 $ DATA [7:0] $end
$var wire 1 " RST $end
$var wire 1 % TYPE $end
$var wire 8 & ADDRESS [7:0] $end
$scope module cu $end
$var wire 1 ! CLK $end
$var wire 8 ' DATA [7:0] $end
$var wire 1 " RST $end
$var wire 1 % TYPE $end
$var wire 1 ( READ_WRITE $end
$var wire 1 ) BRANCH $end
$var wire 8 * ADDRESS [7:0] $end
$var parameter 2 + EXECUTE $end
$var parameter 2 , FETCH $end
$var reg 8 - C [7:0] $end
$var reg 2 . ExCycle [1:0] $end
$var reg 8 / INSTRUCTION_reg [7:0] $end
$var reg 7 0 PC [6:0] $end
$scope module alu $end
$var wire 8 1 AND [7:0] $end
$var wire 1 ! CLK $end
$var wire 8 2 NOT [7:0] $end
$var wire 5 3 OPCODE [4:0] $end
$var wire 8 4 OR [7:0] $end
$var wire 2 5 REG_ADDRESS [1:0] $end
$var wire 8 6 REG_DATA [7:0] $end
$var wire 1 ( REG_WRITE $end
$var wire 1 " RST $end
$var wire 2 7 STATE [1:0] $end
$var wire 8 8 XOR [7:0] $end
$var wire 8 9 sum [7:0] $end
$var wire 8 : sub [7:0] $end
$var wire 8 ; mult [7:0] $end
$var wire 8 < div [7:0] $end
$var wire 8 = Update [7:0] $end
$var wire 8 > SR [7:0] $end
$var wire 8 ? SL [7:0] $end
$var wire 8 @ Nextr1 [7:0] $end
$var wire 8 A Nextr0 [7:0] $end
$var wire 8 B NextB [7:0] $end
$var wire 8 C NextA [7:0] $end
$var wire 8 D GT [7:0] $end
$var wire 8 E EQ [7:0] $end
$var wire 1 ) BRANCH $end
$var parameter 2 F ADVANCE $end
$var parameter 2 G EXECUTE $end
$var parameter 2 H FETCH $end
$var parameter 5 I OP_ADD $end
$var parameter 5 J OP_AND $end
$var parameter 5 K OP_BEQ $end
$var parameter 5 L OP_BGT $end
$var parameter 5 M OP_BNQ $end
$var parameter 5 N OP_DIV $end
$var parameter 5 O OP_EQ $end
$var parameter 5 P OP_GT $end
$var parameter 5 Q OP_JUMP $end
$var parameter 5 R OP_LOAD $end
$var parameter 5 S OP_LOAD_BYTE $end
$var parameter 5 T OP_MULT $end
$var parameter 5 U OP_NOT $end
$var parameter 5 V OP_OR $end
$var parameter 5 W OP_SL $end
$var parameter 5 X OP_SR $end
$var parameter 5 Y OP_SUB $end
$var parameter 5 Z OP_XOR $end
$var reg 8 [ A [7:0] $end
$var reg 8 \ B [7:0] $end
$var reg 8 ] r0 [7:0] $end
$var reg 8 ^ r1 [7:0] $end
$upscope $end
$upscope $end
$scope module memory $end
$var wire 8 _ ADDRESS [7:0] $end
$var wire 1 ! CLK $end
$var wire 8 ` DATA [7:0] $end
$var wire 1 " RST $end
$var wire 1 % TYPE $end
$upscope $end
$upscope $end
$scope task checkRegisters $end
$upscope $end
$upscope $end
$enddefinitions $end
$comment Show the parameter values. $end
$dumpall
b10010 Z
b10101 Y
b11000 X
b11001 W
b10001 V
b10011 U
b10110 T
b11 S
b1 R
b101 Q
b11011 P
b11010 O
b10111 N
b111 M
b1000 L
b110 K
b10000 J
b10100 I
b0 H
b1 G
b10 F
b0 ,
b1 +
$end
#0
$dumpvars
bx `
bx _
bx ^
bx ]
bx \
bx [
b0x E
b0x D
bx C
bx B
bx A
bx @
bx0 ?
b0xxxxxxx >
bx =
bx <
bx ;
bx :
bx 9
bx 8
bx 7
bx 6
bx 5
bx 4
bx 3
bx 2
bx 1
bx 0
bx /
bx .
bx -
bx *
x)
x(
bx '
bx &
x%
bx $
b1 #
1"
0!
$end
#10000
bz =
0)
0(
b11000001 $
b11000001 '
b11000001 6
b11000001 `
b0 8
b0 C
b0 >
b0 ?
b11111111 2
b0 B
b0 4
b0 1
b0 A
b0 @
0%
b0 5
b0 3
b0 &
b0 *
b0 _
b0 9
b0 :
b0 ;
b1 E
b0 D
b0 [
b0 \
b0 ]
b0 ^
b0 .
b0 7
b0 /
b0 0
b0 -
1!
#20000
0!
#30000
1!
#40000
0!
#50000
1!
#60000
0!
#70000
1!
#80000
0!
#90000
1!
#100000
0!
0"
#110000
b0 =
bz $
bz '
bz 6
bz `
b11000 3
b11111111 &
b11111111 *
b11111111 _
b11000001 /
b1 .
b1 7
1!
#120000
0!
#130000
b1000 $
b1000 '
b1000 6
b1000 `
b1 &
b1 *
b1 _
b0 .
b0 7
b1100000 -
b1 0
1!
#140000
0!
#150000
b1100000 C
b1100000 =
1(
b1100000 $
b1100000 '
b1100000 6
b1100000 `
b1 3
b11111111 &
b11111111 *
b11111111 _
b1000 /
b1 .
b1 7
1!
#160000
0!
#170000
b11101001 =
b1100000 8
b11101001 $
b11101001 '
b11101001 6
b11101001 `
b110000 >
b11000000 ?
b10011111 2
b1100000 4
b10 &
b10 *
b10 _
b1100000 9
b1100000 :
b0 E
b1 D
b1100000 [
b0 .
b0 7
b10 0
1!
#180000
0!
#190000
bz =
0(
bz $
bz '
bz 6
bz `
b1100000 C
b11101 3
b11111111 &
b11111111 *
b11111111 _
b11101001 /
b1 .
b1 7
1!
#200000
0!
#210000
b100000 $
b100000 '
b100000 6
b100000 `
b11 &
b11 *
b11 _
b0 .
b0 7
b1110100 -
b11 0
1!
#220000
0!
#230000
1%
b1100000 $
b1100000 '
b1100000 6
b1100000 `
b100 3
b1110100 &
b1110100 *
b1110100 _
b100000 /
b1 .
b1 7
1!
#240000
0!
#250000
b1000001 $
b1000001 '
b1000001 6
b1000001 `
b100 &
b100 *
b100 _
0%
b0 .
b0 7
b100 0
1!
#260000
0!
#270000
1)
bz $
bz '
bz 6
bz `
b1000 3
b11111111 &
b11111111 *
b11111111 _
0%
b1000001 /
b1 .
b1 7
1!
#280000
0!
#290000
b1000 $
b1000 '
b1000 6
b1000 `
b101 &
b101 *
b101 _
b0 .
b0 7
b100000 -
b101 0
1!
#300000
0!
#310000
b100000 =
b100000 C
0)
1(
b100000 $
b100000 '
b100000 6
b100000 `
b1 3
b11111111 &
b11111111 *
b11111111 _
b1000 /
b1 .
b1 7
1!
#320000
0!
#330000
b11100001 =
b100000 8
b11100001 $
b11100001 '
b11100001 6
b11100001 `
b10000 >
b1000000 ?
b11011111 2
b100000 4
b110 &
b110 *
b110 _
b100000 9
b100000 :
b100000 [
b0 .
b0 7
b110 0
1!
#340000
0!
#350000
bz =
0(
bz $
bz '
bz 6
bz `
b100000 C
b11100 3
b11111111 &
b11111111 *
b11111111 _
b11100001 /
b1 .
b1 7
1!
#360000
0!
#370000
b100000 $
b100000 '
b100000 6
b100000 `
b111 &
b111 *
b111 _
b0 .
b0 7
b1110000 -
b111 0
1!
#380000
0!
#390000
1%
b100000 $
b100000 '
b100000 6
b100000 `
b100 3
b1110000 &
b1110000 *
b1110000 _
b100000 /
b1 .
b1 7
1!
#400000
0!
#410000
b1111111 $
b1111111 '
b1111111 6
b1111111 `
b1000 &
b1000 *
b1000 _
0%
b0 .
b0 7
b1000 0
1!
#420000
0!
#430000
bz $
bz '
bz 6
bz `
b11 5
b1111 3
b11111111 &
b11111111 *
b11111111 _
0%
b1111111 /
b1 .
b1 7
1!
#440000
0!
#450000
b1000 $
b1000 '
b1000 6
b1000 `
b1001 &
b1001 *
b1001 _
b0 .
b0 7
b111111 -
b1001 0
1!
#460000
0!
#470000
b111111 =
b111111 C
1(
b111111 $
b111111 '
b111111 6
b111111 `
b0 5
b1 3
b11111111 &
b11111111 *
b11111111 _
b1000 /
b1 .
b1 7
1!
#480000
0!
#490000
b11100011 =
b111111 8
b11100011 $
b11100011 '
b11100011 6
b11100011 `
b11111 >
b1111110 ?
b11000000 2
b111111 4
b1010 &
b1010 *
b1010 _
b111111 9
b111111 :
b111111 [
b0 .
b0 7
b1010 0
1!
#500000
0!
#510000
bz =
0(
b0 B
bz $
bz '
bz 6
bz `
b111111 C
b1 5
b11100 3
b11111111 &
b11111111 *
b11111111 _
b11100011 /
b1 .
b1 7
1!
#520000
0!
#530000
b100000 $
b100000 '
b100000 6
b100000 `
b1011 &
b1011 *
b1011 _
b0 .
b0 7
b1110001 -
b1011 0
1!
#540000
0!
#550000
1%
b111111 $
b111111 '
b111111 6
b111111 `
b0 5
b100 3
b1110001 &
b1110001 *
b1110001 _
b100000 /
b1 .
b1 7
1!
#560000
0!
#570000
b11100001 $
b11100001 '
b11100001 6
b11100001 `
b1100 &
b1100 *
b1100 _
0%
b0 .
b0 7
b1100 0
1!
#580000
0!
#590000
bz $
bz '
bz 6
bz `
b11100 3
b11111111 &
b11111111 *
b11111111 _
0%
b11100001 /
b1 .
b1 7
1!
#600000
0!
#610000
b11000 $
b11000 '
b11000 6
b11000 `
b1101 &
b1101 *
b1101 _
b0 .
b0 7
b1110000 -
b1101 0
1!
#620000
0!
#630000
b100000 =
b100000 C
1(
b100000 $
b100000 '
b100000 6
b100000 `
b11 3
b1110000 &
b1110000 *
b1110000 _
b11000 /
b1 .
b1 7
1!
#640000
0!
#650000
b11010 =
b11010 $
b11010 '
b11010 6
b11010 `
b100000 8
b10000 >
b1000000 ?
b11011111 2
b100000 4
b1110 &
b1110 *
b1110 _
b100000 9
b100000 :
b100000 [
b0 .
b0 7
b1110 0
1!
#660000
0!
#670000
b100000 =
b100000 B
b100000 $
b100000 '
b100000 6
b100000 `
b100000 C
b1 5
b1110000 &
b1110000 *
b1110000 _
b11010 /
b1 .
b1 7
1!
#680000
0!
#690000
b10110000 =
b0 8
b10110000 $
b10110000 '
b10110000 6
b10110000 `
b100000 1
b1111 &
b1111 *
b1111 _
b1000000 9
b0 :
b1 <
b1 E
b0 D
b100000 \
b0 .
b0 7
b1111 0
1!
#700000
0!
#710000
1(
b0 C
b0 =
bz $
bz '
bz 6
bz `
b100000 B
b0 5
b10110 3
b11111111 &
b11111111 *
b11111111 _
b10110000 /
b1 .
b1 7
1!
#720000
0!
#730000
b11101001 $
b11101001 '
b11101001 6
b11101001 `
b100000 8
b0 >
b0 ?
b11111111 2
b0 1
b10000 &
b10000 *
b10000 _
b100000 9
b11100000 :
b0 <
b0 E
b0 [
b0 .
b0 7
b10000 0
1!
#740000
0!
#750000
b0 C
0(
bz =
bz $
bz '
bz 6
bz `
b11101 3
b11111111 &
b11111111 *
b11111111 _
b11101001 /
b1 .
b1 7
1!
#760000
0!
#770000
b11010 $
b11010 '
b11010 6
b11010 `
b10001 &
b10001 *
b10001 _
b0 .
b0 7
b1110100 -
b10001 0
1!
#780000
0!
#790000
b1100000 =
b1100000 B
1(
b1100000 $
b1100000 '
b1100000 6
b1100000 `
b1 5
b11 3
b1110100 &
b1110100 *
b1110100 _
b11010 /
b1 .
b1 7
1!
#800000
0!
#810000
b10101000 =
b10101000 $
b10101000 '
b10101000 6
b10101000 `
b1100000 8
b1100000 4
b10010 &
b10010 *
b10010 _
b1100000 9
b10100000 :
b1100000 \
b0 .
b0 7
b10010 0
1!
#820000
0!
#830000
1(
b10100000 C
b10100000 =
bz $
bz '
bz 6
bz `
b1100000 B
b0 5
b10101 3
b11111111 &
b11111111 *
b11111111 _
b10101000 /
b1 .
b1 7
1!
#840000
0!
#850000
b11100101 $
b11100101 '
b11100101 6
b11100101 `
b1000000 =
b11000000 8
b1010000 >
b1000000 ?
b1011111 2
b11100000 4
b100000 1
b10011 &
b10011 *
b10011 _
b0 9
b1000000 :
b11111111 <
b10100000 [
b0 .
b0 7
b10011 0
1!
#860000
0!
#870000
0(
b0 A
bz =
bz $
bz '
bz 6
bz `
b10100000 C
b10 5
b11100 3
b11111111 &
b11111111 *
b11111111 _
b11100101 /
b1 .
b1 7
1!
#880000
0!
#890000
b100000 $
b100000 '
b100000 6
b100000 `
b10100 &
b10100 *
b10100 _
b0 .
b0 7
b1110010 -
b10100 0
1!
#900000
0!
#910000
1%
b10100000 $
b10100000 '
b10100000 6
b10100000 `
b0 5
b100 3
b1110010 &
b1110010 *
b1110010 _
b100000 /
b1 .
b1 7
1!
#920000
0!
#930000
b11100011 $
b11100011 '
b11100011 6
b11100011 `
b10101 &
b10101 *
b10101 _
0%
b0 .
b0 7
b10101 0
1!
#940000
0!
#950000
bz $
bz '
bz 6
bz `
b1 5
b11100 3
b11111111 &
b11111111 *
b11111111 _
0%
b11100011 /
b1 .
b1 7
1!
#960000
0!
#970000
b11000 $
b11000 '
b11000 6
b11000 `
b10110 &
b10110 *
b10110 _
b0 .
b0 7
b1110001 -
b10110 0
1!
#980000
0!
#990000
b111111 =
b111111 C
1(
b111111 $
b111111 '
b111111 6
b111111 `
b0 5
b11 3
b1110001 &
b1110001 *
b1110001 _
b11000 /
b1 .
b1 7
1!
#1000000
0!
#1010000
b11010 =
b11010 $
b11010 '
b11010 6
b11010 `
b1011111 8
b11111 >
b1111110 ?
b11000000 2
b1111111 4
b10111 &
b10111 *
b10111 _
b10011111 9
b11011111 :
b10100000 ;
b0 <
b111111 [
b0 .
b0 7
b10111 0
1!
#1020000
0!
#1030000
b111111 =
b111111 B
b111111 $
b111111 '
b111111 6
b111111 `
b111111 C
b1 5
b1110001 &
b1110001 *
b1110001 _
b11010 /
b1 .
b1 7
1!
#1040000
0!
#1050000
b10110000 =
b10110000 $
b10110000 '
b10110000 6
b10110000 `
b0 8
b111111 4
b111111 1
b11000 &
b11000 *
b11000 _
b1111110 9
b0 :
b10000001 ;
b1 <
b1 E
b111111 \
b0 .
b0 7
b11000 0
1!
#1060000
0!
#1070000
1(
b10000001 C
b10000001 =
bz $
bz '
bz 6
bz `
b111111 B
b0 5
b10110 3
b11111111 &
b11111111 *
b11111111 _
b10110000 /
b1 .
b1 7
1!
#1080000
0!
#1090000
b11101001 $
b11101001 '
b11101001 6
b11101001 `
b10111111 =
b10111110 8
b1000000 >
b10 ?
b1111110 2
b10111111 4
b1 1
b11001 &
b11001 *
b11001 _
b11000000 9
b1000010 :
b10111111 ;
b11111110 <
b0 E
b10000001 [
b0 .
b0 7
b11001 0
1!
#1100000
0!
#1110000
0(
bz =
bz $
bz '
bz 6
bz `
b10000001 C
b11101 3
b11111111 &
b11111111 *
b11111111 _
b11101001 /
b1 .
b1 7
1!
#1120000
0!
#1130000
b11010 $
b11010 '
b11010 6
b11010 `
b11010 &
b11010 *
b11010 _
b0 .
b0 7
b1110100 -
b11010 0
1!
#1140000
0!
#1150000
b1100000 =
b1100000 B
1(
b1100000 $
b1100000 '
b1100000 6
b1100000 `
b1 5
b11 3
b1110100 &
b1110100 *
b1110100 _
b11010 /
b1 .
b1 7
1!
#1160000
0!
#1170000
b10101000 =
b10101000 $
b10101000 '
b10101000 6
b10101000 `
b11100001 8
b11100001 4
b0 1
b11011 &
b11011 *
b11011 _
b11100001 9
b100001 :
b1100000 ;
b11111111 <
b1100000 \
b0 .
b0 7
b11011 0
1!
#1180000
0!
#1190000
1(
b100001 C
b100001 =
bz $
bz '
bz 6
bz `
b1100000 B
b0 5
b10101 3
b11111111 &
b11111111 *
b11111111 _
b10101000 /
b1 .
b1 7
1!
#1200000
0!
#1210000
b11100111 $
b11100111 '
b11100111 6
b11100111 `
b11000001 =
b1000001 8
b10000 >
b1000010 ?
b11011110 2
b1100001 4
b100000 1
b11100 &
b11100 *
b11100 _
b10000001 9
b11000001 :
b0 <
b100001 [
b0 .
b0 7
b11100 0
1!
#1220000
0!
#1230000
0(
b0 @
bz =
bz $
bz '
bz 6
bz `
b100001 C
b11 5
b11100 3
b11111111 &
b11111111 *
b11111111 _
b11100111 /
b1 .
b1 7
1!
#1240000
0!
#1250000
b100000 $
b100000 '
b100000 6
b100000 `
b11101 &
b11101 *
b11101 _
b0 .
b0 7
b1110011 -
b11101 0
1!
#1260000
0!
#1270000
1%
b100001 $
b100001 '
b100001 6
b100001 `
b0 5
b100 3
b1110011 &
b1110011 *
b1110011 _
b100000 /
b1 .
b1 7
1!
#1280000
0!
#1290000
b11100001 $
b11100001 '
b11100001 6
b11100001 `
b11110 &
b11110 *
b11110 _
0%
b0 .
b0 7
b11110 0
1!
#1300000
0!
#1310000
bz $
bz '
bz 6
bz `
b11100 3
b11111111 &
b11111111 *
b11111111 _
0%
b11100001 /
b1 .
b1 7
1!
#1320000
0!
#1330000
b11010 $
b11010 '
b11010 6
b11010 `
b11111 &
b11111 *
b11111 _
b0 .
b0 7
b1110000 -
b11111 0
1!
#1340000
0!
#1350000
b100000 =
b100000 B
1(
b100000 $
b100000 '
b100000 6
b100000 `
b1 5
b11 3
b1110000 &
b1110000 *
b1110000 _
b11010 /
b1 .
b1 7
1!
#1360000
0!
#1370000
b11100011 =
b11100011 $
b11100011 '
b11100011 6
b11100011 `
b1 8
b100001 4
b100000 &
b100000 *
b100000 _
b1000001 9
b1 :
b100000 ;
b1 <
b1 D
b100000 \
b0 .
b0 7
b100000 0
1!
#1380000
0!
#1390000
bz =
0(
bz $
bz '
bz 6
bz `
b100000 B
b11100 3
b11111111 &
b11111111 *
b11111111 _
b11100011 /
b1 .
b1 7
1!
#1400000
0!
#1410000
b11000 $
b11000 '
b11000 6
b11000 `
b100001 &
b100001 *
b100001 _
b0 .
b0 7
b1110001 -
b100001 0
1!
#1420000
0!
#1430000
b111111 =
b111111 C
1(
b111111 $
b111111 '
b111111 6
b111111 `
b0 5
b11 3
b1110001 &
b1110001 *
b1110001 _
b11000 /
b1 .
b1 7
1!
#1440000
0!
#1450000
b10101000 =
b10101000 $
b10101000 '
b10101000 6
b10101000 `
b11111 8
b11111 >
b1111110 ?
b11000000 2
b111111 4
b100010 &
b100010 *
b100010 _
b1011111 9
b11111 :
b11100000 ;
b111111 [
b0 .
b0 7
b100010 0
1!
#1460000
0!
#1470000
1(
b11111 =
bz $
bz '
bz 6
bz `
b11111 C
b10101 3
b11111111 &
b11111111 *
b11111111 _
b10101000 /
b1 .
b1 7
1!
#1480000
0!
#1490000
b11 $
b11 '
b11 6
b11 `
b111111 8
b11111111 =
b1111 >
b111110 ?
b11100000 2
b0 1
b100011 &
b100011 *
b100011 _
b111111 9
b11111111 :
b0 <
b0 D
b11111 [
b0 .
b0 7
b100011 0
1!
#1500000
0!
#1510000
0(
b100000 B
bz =
bz $
bz '
bz 6
bz `
b11111 C
b1 5
b0 3
b11111111 &
b11111111 *
b11111111 _
b11 /
b1 .
b1 7
1!
#1520000
0!
#1530000
b1010 $
b1010 '
b1010 6
b1010 `
b100100 &
b100100 *
b100100 _
b0 .
b0 7
b1 -
b100100 0
1!
#1540000
0!
#1550000
b1 =
b1 B
1(
b1 $
b1 '
b1 6
b1 `
b1 3
b11111111 &
b11111111 *
b11111111 _
b1010 /
b1 .
b1 7
1!
#1560000
0!
#1570000
b10101001 =
b11110 8
b10101001 $
b10101001 '
b10101001 6
b10101001 `
b11111 4
b1 1
b100101 &
b100101 *
b100101 _
b100000 9
b11110 :
b11111 ;
b11111 <
b1 D
b1 \
b0 .
b0 7
b100101 0
1!
#1580000
0!
#1590000
0(
b11111 C
b11110 =
bz $
bz '
bz 6
bz `
b1 B
b0 5
b10101 3
b11111111 &
b11111111 *
b11111111 _
b10101001 /
b1 .
b1 7
1!
#1600000
0!
#1610000
b110000 $
b110000 '
b110000 6
b110000 `
b100110 &
b100110 *
b100110 _
b0 .
b0 7
b1010100 -
b100110 0
1!
#1620000
0!
#1630000
bz =
bz $
bz '
bz 6
bz `
b110 3
b11111111 &
b11111111 *
b11111111 _
b110000 /
b1 .
b1 7
1!
#1640000
0!
#1650000
b11100001 $
b11100001 '
b11100001 6
b11100001 `
b100111 &
b100111 *
b100111 _
b0 .
b0 7
b100111 0
1!
#1660000
0!
#1670000
bz $
bz '
bz 6
bz `
b11100 3
b11111111 &
b11111111 *
b11111111 _
b11100001 /
b1 .
b1 7
1!
#1680000
0!
#1690000
b11000 $
b11000 '
b11000 6
b11000 `
b101000 &
b101000 *
b101000 _
b0 .
b0 7
b1110000 -
b101000 0
1!
#1700000
0!
#1710000
b100000 =
b100000 C
1(
b100000 $
b100000 '
b100000 6
b100000 `
b11 3
b1110000 &
b1110000 *
b1110000 _
b11000 /
b1 .
b1 7
1!
#1720000
0!
#1730000
b11100011 =
b11100011 $
b11100011 '
b11100011 6
b11100011 `
b100001 8
b10000 >
b1000000 ?
b11011111 2
b100001 4
b0 1
b101001 &
b101001 *
b101001 _
b100001 9
b11111 :
b100000 ;
b100000 <
b100000 [
b0 .
b0 7
b101001 0
1!
#1740000
0!
#1750000
bz =
0(
b1 B
bz $
bz '
bz 6
bz `
b100000 C
b1 5
b11100 3
b11111111 &
b11111111 *
b11111111 _
b11100011 /
b1 .
b1 7
1!
#1760000
0!
#1770000
b11010 $
b11010 '
b11010 6
b11010 `
b101010 &
b101010 *
b101010 _
b0 .
b0 7
b1110001 -
b101010 0
1!
#1780000
0!
#1790000
b111111 =
b111111 B
1(
b111111 $
b111111 '
b111111 6
b111111 `
b11 3
b1110001 &
b1110001 *
b1110001 _
b11010 /
b1 .
b1 7
1!
#1800000
0!
#1810000
b10100000 =
b10100000 $
b10100000 '
b10100000 6
b10100000 `
b11111 8
b111111 4
b100000 1
b101011 &
b101011 *
b101011 _
b1011111 9
b11100001 :
b11100000 ;
b0 <
b0 D
b111111 \
b0 .
b0 7
b101011 0
1!
#1820000
0!
#1830000
1(
b1011111 C
b111111 $
b111111 '
b111111 6
b111111 `
b1011111 =
b111111 B
b0 5
b10100 3
b1110001 &
b1110001 *
b1110001 _
b10100000 /
b1 .
b1 7
1!
#1840000
0!
#1850000
b11000000 $
b11000000 '
b11000000 6
b11000000 `
b1100000 8
b10011110 =
b101111 >
b10111110 ?
b10100000 2
b1111111 4
b11111 1
b101100 &
b101100 *
b101100 _
b10011110 9
b100000 :
b1100001 ;
b1 <
b1 D
b1011111 [
b0 .
b0 7
b101100 0
1!
#1860000
0!
#1870000
bz $
bz '
bz 6
bz `
b101111 =
b101111 C
b11000 3
b11111111 &
b11111111 *
b11111111 _
b11000000 /
b1 .
b1 7
1!
#1880000
0!
#1890000
b10111 =
b11101011 $
b11101011 '
b11101011 6
b11101011 `
b10000 8
b10111 >
b1011110 ?
b11010000 2
b111111 4
b101111 1
b101101 &
b101101 *
b101101 _
b1101110 9
b11110000 :
b10010001 ;
b0 <
b0 D
b101111 [
b0 .
b0 7
b101101 0
1!
#1900000
0!
#1910000
bz =
0(
b111111 B
bz $
bz '
bz 6
bz `
b101111 C
b1 5
b11101 3
b11111111 &
b11111111 *
b11111111 _
b11101011 /
b1 .
b1 7
1!
#1920000
0!
#1930000
b100000 $
b100000 '
b100000 6
b100000 `
b101110 &
b101110 *
b101110 _
b0 .
b0 7
b1110101 -
b101110 0
1!
#1940000
0!
#1950000
1%
b101111 $
b101111 '
b101111 6
b101111 `
b0 5
b100 3
b1110101 &
b1110101 *
b1110101 _
b100000 /
b1 .
b1 7
1!
#1960000
0!
#1970000
b11010 $
b11010 '
b11010 6
b11010 `
b101111 &
b101111 *
b101111 _
0%
b0 .
b0 7
b101111 0
1!
#1980000
0!
#1990000
b101111 =
b101111 B
1(
b101111 $
b101111 '
b101111 6
b101111 `
b1 5
b11 3
b1110101 &
b1110101 *
b1110101 _
0%
b11010 /
b1 .
b1 7
1!
#2000000
0!
#2010000
b10110000 =
b10110000 $
b10110000 '
b10110000 6
b10110000 `
b0 8
b101111 4
b110000 &
b110000 *
b110000 _
b1011110 9
b0 :
b10100001 ;
b1 <
b1 E
b101111 \
b0 .
b0 7
b110000 0
1!
#2020000
0!
#2030000
1(
b10100001 C
b10100001 =
bz $
bz '
bz 6
bz `
b101111 B
b0 5
b10110 3
b11111111 &
b11111111 *
b11111111 _
b10110000 /
b1 .
b1 7
1!
#2040000
0!
#2050000
b11101001 $
b11101001 '
b11101001 6
b11101001 `
b10001111 =
b10001110 8
b1010000 >
b1000010 ?
b1011110 2
b10101111 4
b100001 1
b110001 &
b110001 *
b110001 _
b11010000 9
b1110010 :
b10001111 ;
b11111110 <
b0 E
b10100001 [
b0 .
b0 7
b110001 0
1!
#2060000
0!
#2070000
0(
bz =
bz $
bz '
bz 6
bz `
b10100001 C
b11101 3
b11111111 &
b11111111 *
b11111111 _
b11101001 /
b1 .
b1 7
1!
#2080000
0!
#2090000
b11010 $
b11010 '
b11010 6
b11010 `
b110010 &
b110010 *
b110010 _
b0 .
b0 7
b1110100 -
b110010 0
1!
#2100000
0!
#2110000
b1100000 =
b1100000 B
1(
b1100000 $
b1100000 '
b1100000 6
b1100000 `
b1 5
b11 3
b1110100 &
b1110100 *
b1110100 _
b11010 /
b1 .
b1 7
1!
#2120000
0!
#2130000
b10101000 =
b10101000 $
b10101000 '
b10101000 6
b10101000 `
b11000001 8
b11100001 4
b100000 1
b110011 &
b110011 *
b110011 _
b1 9
b1000001 :
b1100000 ;
b0 <
b1100000 \
b0 .
b0 7
b110011 0
1!
#2140000
0!
#2150000
1(
b1000001 C
b1000001 =
bz $
bz '
bz 6
bz `
b1100000 B
b0 5
b10101 3
b11111111 &
b11111111 *
b11111111 _
b10101000 /
b1 .
b1 7
1!
#2160000
0!
#2170000
b11101101 $
b11101101 '
b11101101 6
b11101101 `
b11100001 =
b100001 8
b100000 >
b10000010 ?
b10111110 2
b1100001 4
b1000000 1
b110100 &
b110100 *
b110100 _
b10100001 9
b11100001 :
b1000001 [
b0 .
b0 7
b110100 0
1!
#2180000
0!
#2190000
0(
b0 A
bz =
bz $
bz '
bz 6
bz `
b1000001 C
b10 5
b11101 3
b11111111 &
b11111111 *
b11111111 _
b11101101 /
b1 .
b1 7
1!
#2200000
0!
#2210000
b100000 $
b100000 '
b100000 6
b100000 `
b110101 &
b110101 *
b110101 _
b0 .
b0 7
b1110110 -
b110101 0
1!
#2220000
0!
#2230000
1%
b1000001 $
b1000001 '
b1000001 6
b1000001 `
b0 5
b100 3
b1110110 &
b1110110 *
b1110110 _
b100000 /
b1 .
b1 7
1!
#2240000
0!
#2250000
b1 $
b1 '
b1 6
b1 `
b110110 &
b110110 *
b110110 _
0%
b0 .
b0 7
b110110 0
1!
#2260000
0!
#2270000
bz $
bz '
bz 6
bz `
b0 3
b11111111 &
b11111111 *
b11111111 _
0%
b1 /
b1 .
b1 7
1!
#2280000
0!
#2290000
b1010 $
b1010 '
b1010 6
b1010 `
b110111 &
b110111 *
b110111 _
b0 .
b0 7
b0 -
b110111 0
1!
#2300000
0!
#2310000
b0 =
b0 B
1(
b0 $
b0 '
b0 6
b0 `
b1 5
b1 3
b11111111 &
b11111111 *
b11111111 _
b1010 /
b1 .
b1 7
1!
#2320000
0!
#2330000
b10101001 =
b1000001 8
b10101001 $
b10101001 '
b10101001 6
b10101001 `
b1000001 4
b0 1
b111000 &
b111000 *
b111000 _
b1000001 9
b1000001 :
b0 ;
bx <
b1 D
b0 \
b0 .
b0 7
b111000 0
1!
#2340000
0!
#2350000
0(
b1000001 =
bz $
bz '
bz 6
bz `
b0 B
b0 5
b10101 3
b11111111 &
b11111111 *
b11111111 _
b10101001 /
b1 .
b1 7
1!
#2360000
0!
#2370000
b110000 $
b110000 '
b110000 6
b110000 `
b111001 &
b111001 *
b111001 _
b0 .
b0 7
b1010100 -
b111001 0
1!
#2380000
0!
#2390000
bz =
bz $
bz '
bz 6
bz `
b110 3
b11111111 &
b11111111 *
b11111111 _
b110000 /
b1 .
b1 7
1!
#2400000
0!
#2410000
b11101101 $
b11101101 '
b11101101 6
b11101101 `
b111010 &
b111010 *
b111010 _
b0 .
b0 7
b111010 0
1!
#2420000
0!
#2430000
bz $
bz '
bz 6
bz `
b10 5
b11101 3
b11111111 &
b11111111 *
b11111111 _
b11101101 /
b1 .
b1 7
1!
#2440000
0!
#2450000
b11000 $
b11000 '
b11000 6
b11000 `
b111011 &
b111011 *
b111011 _
b0 .
b0 7
b1110110 -
b111011 0
1!
#2460000
0!
#2470000
b1000001 =
b1000001 C
1(
b1000001 $
b1000001 '
b1000001 6
b1000001 `
b0 5
b11 3
b1110110 &
b1110110 *
b1110110 _
b11000 /
b1 .
b1 7
1!
#2480000
0!
#2490000
b1 =
b1 $
b1 '
b1 6
b1 `
b111100 &
b111100 *
b111100 _
b0 .
b0 7
b111100 0
1!
#2500000
0!
#2510000
bz =
0(
bz $
bz '
bz 6
bz `
b1000001 C
b0 3
b11111111 &
b11111111 *
b11111111 _
b1 /
b1 .
b1 7
1!
#2520000
0!
#2530000
b1010 $
b1010 '
b1010 6
b1010 `
b111101 &
b111101 *
b111101 _
b0 .
b0 7
b0 -
b111101 0
1!
#2540000
0!
#2550000
b0 =
b0 B
1(
b0 $
b0 '
b0 6
b0 `
b1 5
b1 3
b11111111 &
b11111111 *
b11111111 _
b1010 /
b1 .
b1 7
1!
#2560000
0!
#2570000
b10010101 =
b10010101 $
b10010101 '
b10010101 6
b10010101 `
b111110 &
b111110 *
b111110 _
b0 .
b0 7
b111110 0
1!
#2580000
0!
#2590000
b1000001 =
0(
b0 A
bz $
bz '
bz 6
bz `
b0 B
b10 5
b10010 3
b11111111 &
b11111111 *
b11111111 _
b10010101 /
b1 .
b1 7
1!
#2600000
0!
#2610000
b1000000 $
b1000000 '
b1000000 6
b1000000 `
b111111 &
b111111 *
b111111 _
b0 .
b0 7
b1001010 -
b111111 0
1!
#2620000
0!
#2630000
bz =
1)
bz $
bz '
bz 6
bz `
b0 5
b1000 3
b11111111 &
b11111111 *
b11111111 _
b1000000 /
b1 .
b1 7
1!
#2640000
0!
#2650000
b11101011 $
b11101011 '
b11101011 6
b11101011 `
b1001010 &
b1001010 *
b1001010 _
b0 .
b0 7
b1001010 0
1!
#2660000
0!
